Pumpkin assignment
…
#An Italian grower is the absolute winner globally, there is no american in the top4

#Based on high numbers, I will play with giant pumpkins in the US

#Filter US
pumpkins_usa <- pumpkins %>%
  filter(country == "United States")
  
#Which US state is the most interested in this competition? I have always wanted to plot a map.
states_n <- pumpkins_usa %>%
  count(state, sort = TRUE) 

states_n

## # A tibble: 46 x 2
##    state            n
##    <chr>        <int>
##  1 Wisconsin     1031
##  2 California     991
##  3 Ohio           713
##  4 Washington     711
##  5 Michigan       633
##  6 Pennsylvania   540
##  7 New York       505
##  8 Oregon         464
##  9 Colorado       462
## 10 Minnesota      381
## # ... with 36 more rows
…
#The winner always produced heavier pumpkin except in the last year

#Checking mothers and fathers - which are the most used seeds and pollinators?
mothers <- pumpkins %>%
  count(seed_mother, sort = TRUE)

mothers

## # A tibble: 5,999 x 2
##    seed_mother       n
##    <chr>         <int>
##  1 <NA>           4424
##  2 Unknown         314
##  3 2145 McMullen   122
##  4 2009 Wallace    104
##  5 1985 Miller      89
##  6 1911 Urena       72
##  7 2363 Holland     61
##  8 2008 Neptune     60
##  9 1495 Stelts      52
## 10 1317 Clementz    42
## # ... with 5,989 more rows

fathers <- pumpkins %>%
  count(pollinator_father, sort = TRUE)

fathers

## # A tibble: 3,453 x 2
##    pollinator_father     n
##    <chr>             <int>
##  1 <NA>               5160
##  2 Self               2228
##  3 Open               1438
##  4 Unknown             159
##  5 2009 Wallace        143
##  6 2145 McMullen       124
##  7 1985 Miller          68
##  8 1911 Urena           62
##  9 2363 Holland         57
## 10 2032 Mathison        54
## # ... with 3,443 more rows
…
